{
    "users": [{
            "id": 1,
            "name": "Axel",
            "password": "nino",
            "email": "sebastian@codingthesmartway.com"
        },
        {
            "id": 2,
            "name": "Soso",
            "password": "soso",
            "email": "steve@codingthesmartway.com"
        },
        {
            "id": 3,
            "name": "Jane",
            "password": "Doe",
            "email": "ann@codingthesmartway.com"
        }
    ]
}